{
  "project_info": {
    "project_number": "905540538427",
    "firebase_url": "https://sunniesmarriage.firebaseio.com",
    "project_id": "sunniesmarriage",
    "storage_bucket": "sunniesmarriage.appspot.com"
  },
  "client": [
    {
      "client_info": {
        "mobilesdk_app_id": "1:905540538427:android:af2e434afa39a27f",
        "android_client_info": {
          "package_name": "com.dies.suunis4marriage"
        }
      },
      "oauth_client": [
        {
          "client_id": "905540538427-sn4amsab7u127itd6bv614tabn22rajg.apps.googleusercontent.com",
          "client_type": 1,
          "android_info": {
            "package_name": "com.dies.suunis4marriage",
            "certificate_hash": "808d2e60f9a88a4654f6b8b7357076678b6a6587"
          }
        }
      ],
      "api_key": [
        {
          "current_key": "AIzaSyDVAqCH-J_wR4Xj6Nvo3S_6i5TNfbXNM5g"
        }
      ],
      "services": {
        "appinvite_service": {
          "other_platform_oauth_client": [
            {
              "client_id": "905540538427-d08ur12brf1qc97jahp36oeoj663cfu9.apps.googleusercontent.com",
              "client_type": 3
            }
          ]
        }
      }
    }
  ],
  "configuration_version": "1"
}